<svg width="31" height="29" viewBox="0 0 31 29" fill="none" xmlns="http://www.w3.org/2000/svg">
<path d="M8.80543 2.02601C12.6352 1.70302 14.9768 4.46766 15.6689 5.89035C16.3611 4.46766 18.7027 1.70302 22.5325 2.02601C27.3196 2.42975 29.5941 6.16667 29.3387 11.1667C29.0833 16.1667 25.0126 19.0983 15.6689 27C6.32532 19.0983 2.00001 16.443 2 11.1667C1.99999 5.89035 4.01826 2.42975 8.80543 2.02601Z" stroke="#86CFF8" stroke-width="2.5" stroke-linecap="round" stroke-linejoin="round" fill="none"/>
<path d="M2 11.1667C1.99999 5.89035 4.01826 2.42975 8.80543 2.02601C12.6352 1.70302 14.9768 4.46766 15.6689 5.89035C16.3611 4.46766 18.7027 1.70302 22.5325 2.02601C27.3196 2.42975 29.5941 6.16667 29.3387 11.1667" fill="none" stroke="#098BE9" stroke-width="2.5" stroke-linecap="round" stroke-linejoin="round"/>
</svg>
